…
``` julia
# Set token to get access to the API
api_setup("https://epigraf.uni-muenster.de","BC0YB9XVBGDFVOGNRWCP")

# Get an articles table
articles = fetch_table("articles"; db = "epi_movies", maxpages = 2)
```
`articles` holds a DataFrame with article data, corresponding to the top level of the Relational Article Model.

```
Fetched 20 records from articles.
20×3 DataFrame
 Row │ signature  name                      project_name 
     │ Int64      String31                  String7      
─────┼───────────────────────────────────────────────────
   1 │         1  2001: A Space Odyssey     Movies
   2 │         2  Spartacus                 Movies
   3 │         3  Gladiator                 Movies
   4 │         4  The Godfather             Movies
   5 │         5  Star Wars                 Movies
   6 │         6  Superbad                  Movies
   7 │         7  Pirates of the Caribbean  Movies
  ⋮  │     ⋮                 ⋮                   ⋮
  14 │         4  The Godfather             Movies
  15 │         5  Star Wars                 Movies
  16 │         6  Superbad                  Movies
  17 │         7  Pirates of the Caribbean  Movies
  18 │         8  The Lord of the Rings     Movies
  19 │         9  The Chronicles of Narnia  Movies
  20 │        10  La La Land                Movies
                                           6 rows omitted
```
…
